{
  "project_info": {
    "project_number": "246265097728",
    "firebase_url": "https://loovers-faf86.firebaseio.com",
    "project_id": "loovers-faf86",
    "storage_bucket": "loovers-faf86.appspot.com"
  },
  "client": [
    {
      "client_info": {
        "mobilesdk_app_id": "1:246265097728:android:6bb6bdc474583e9c",
        "android_client_info": {
          "package_name": "com.loovers.app"
        }
      },
      "oauth_client": [
        {
          "client_id": "246265097728-ftcl3f6mvit8j3tth9u3jsc8rjkt9p94.apps.googleusercontent.com",
          "client_type": 3
        }
      ],
      "api_key": [
        {
          "current_key": "AIzaSyCgso7sY60S9kRMxMGtMmxA6naHSpbxPYQ"
        }
      ],
      "services": {
        "analytics_service": {
          "status": 1
        },
        "appinvite_service": {
          "status": 1,
          "other_platform_oauth_client": []
        },
        "ads_service": {
          "status": 2
        }
      }
    }
  ],
  "configuration_version": "1"
}